[
    {
      "setup": {
        "waterlily_1": [
          {
            "waterlily": 1
          },
          {}
        ],
        "fireblossom_1": [
          {
            "fireblossom": 1
          },
          {
            "waterlily": 2
          }
        ],
        "bellflower_1": [
          {
            "bellflower": 1
          },
          {
            "fireblossom": 2,
            "waterlily": 0
          }
        ],
        "snowdrop_1": [
          {
            "snowdrop": 1
          },
          {
            "bellflower": 2,
            "waterlily": 0
          }
        ],
        "snowdrop_2": [
          {
            "snowdrop": 2
          },
          {
            "snowdrop": 2,
            "waterlily": 0
          }
        ],
        "fireblossom_2": [
          {
            "fireblossom": 2
          },
          {
            "bellflower": 1,
            "fireblossom": 1,
            "snowdrop": 1
          }
        ],
        "starflower_1": [
          {
            "starflower": 1
          },
          {
            "snowdrop": 8
          }
        ]
      },
      "solution": [
        [
          "waterlily_1",
          "fireblossom_1"
        ],
        [
          "waterlily_1",
          "fireblossom_1"
        ],
        [
          "waterlily_1",
          "bellflower_1"
        ],
        [
          "fireblossom_1",
          "bellflower_1"
        ],
        [
          "fireblossom_1",
          "snowdrop_1"
        ],
        [
          "bellflower_1",
          "snowdrop_1"
        ],
        [
          "bellflower_1",
          "snowdrop_2"
        ],
        [
          "snowdrop_1",
          "snowdrop_2"
        ],
        [
          "snowdrop_1",
          "snowdrop_2"
        ],
        [
          "waterlily_1",
          "snowdrop_2"
        ]
      ],
      "layers": 5,
      "difficulty": 10
    },
    {
      "setup": {
        "waterlily_1": [
          {
            "waterlily": 1
          },
          {}
        ],
        "fireblossom_1": [
          {
            "fireblossom": 1
          },
          {
            "waterlily": 4
          }
        ],
        "snowdrop_1": [
          {
            "snowdrop": 1
          },
          {
            "fireblossom": 1,
            "waterlily": 3
          }
        ],
        "bellflower_1": [
          {
            "bellflower": 1
          },
          {
            "snowdrop": 1,
            "waterlily": 3
          }
        ],
        "waterlily_2": [
          {
            "waterlily": 2
          },
          {
            "bellflower": 1,
            "waterlily": 3
          }
        ],
        "bellflower_2": [
          {
            "bellflower": 2
          },
          {
            "bellflower": 2,
            "fireblossom": 1,
            "waterlily": 2
          }
        ],
        "starflower_1": [
          {
            "starflower": 1
          },
          {
            "bellflower": 4,
            "fireblossom": 2
          }
        ]
      },
      "solution": [
        [
          "waterlily_1",
          "fireblossom_1"
        ],
        [
          "fireblossom_1",
          "snowdrop_1"
        ],
        [
          "snowdrop_1",
          "bellflower_1"
        ],
        [
          "waterlily_1",
          "waterlily_2"
        ],
        [
          "waterlily_1",
          "fireblossom_1"
        ],
        [
          "fireblossom_1",
          "snowdrop_1"
        ],
        [
          "snowdrop_1",
          "bellflower_1"
        ],
        [
          "waterlily_1",
          "waterlily_2"
        ],
        [
          "waterlily_2",
          "fireblossom_1"
        ],
        [
          "bellflower_1",
          "bellflower_2"
        ],
        [
          "bellflower_1",
          "waterlily_1"
        ],
        [
          "waterlily_1",
          "waterlily_2"
        ],
        [
          "waterlily_2",
          "fireblossom_1"
        ],
        [
          "waterlily_2",
          "bellflower_2"
        ]
      ],
      "layers": 5,
      "difficulty": 14
    },
    {
      "setup": {
        "waterlily_1": [
          {
            "waterlily": 1
          },
          {}
        ],
        "fireblossom_1": [
          {
            "fireblossom": 1
          },
          {
            "waterlily": 3
          }
        ],
        "bellflower_1": [
          {
            "bellflower": 1
          },
          {
            "fireblossom": 2,
            "waterlily": 1
          }
        ],
        "snowdrop_1": [
          {
            "snowdrop": 1
          },
          {
            "bellflower": 2,
            "waterlily": 1
          }
        ],
        "bellflower_2": [
          {
            "bellflower": 2
          },
          {
            "snowdrop": 1,
            "waterlily": 2
          }
        ],
        "snowdrop_2": [
          {
            "snowdrop": 2
          },
          {
            "snowdrop": 3,
            "waterlily": 0
          }
        ],
        "starflower_1": [
          {
            "starflower": 1
          },
          {
            "fireblossom": 1,
            "snowdrop": 6
          }
        ]
      },
      "solution": [
        [
          "waterlily_1",
          "fireblossom_1"
        ],
        [
          "waterlily_1",
          "fireblossom_1"
        ],
        [
          "waterlily_1",
          "bellflower_1"
        ],
        [
          "fireblossom_1",
          "bellflower_1"
        ],
        [
          "fireblossom_1",
          "waterlily_1"
        ],
        [
          "bellflower_1",
          "snowdrop_1"
        ],
        [
          "bellflower_1",
          "bellflower_2"
        ],
        [
          "waterlily_1",
          "snowdrop_1"
        ],
        [
          "bellflower_2",
          "snowdrop_1"
        ],
        [
          "snowdrop_1",
          "snowdrop_2"
        ],
        [
          "snowdrop_1",
          "waterlily_1"
        ],
        [
          "snowdrop_1",
          "waterlily_1"
        ],
        [
          "waterlily_1",
          "fireblossom_1"
        ],
        [
          "waterlily_1",
          "bellflower_2"
        ],
        [
          "bellflower_2",
          "snowdrop_1"
        ],
        [
          "snowdrop_1",
          "snowdrop_2"
        ],
        [
          "waterlily_1",
          "snowdrop_2"
        ]
      ],
      "layers": 5,
      "difficulty": 17
    },
    {
      "setup": {
        "waterlily_1": [
          {
            "waterlily": 1
          },
          {}
        ],
        "bellflower_1": [
          {
            "bellflower": 1
          },
          {
            "waterlily": 2
          }
        ],
        "snowdrop_1": [
          {
            "snowdrop": 1
          },
          {
            "bellflower": 2,
            "waterlily": 0
          }
        ],
        "fireblossom_1": [
          {
            "fireblossom": 1
          },
          {
            "snowdrop": 2,
            "waterlily": 0
          }
        ],
        "bellflower_2": [
          {
            "bellflower": 2
          },
          {
            "fireblossom": 2,
            "waterlily": 0
          }
        ],
        "waterlily_2": [
          {
            "waterlily": 2
          },
          {
            "bellflower": 5,
            "waterlily": 0
          }
        ],
        "fireblossom_2": [
          {
            "fireblossom": 2
          },
          {
            "fireblossom": 0,
            "waterlily": 4
          }
        ],
        "starflower_1": [
          {
            "starflower": 1
          },
          {
            "fireblossom": 6,
            "snowdrop": 1
          }
        ]
      },
      "solution": [
        [
          "waterlily_1",
          "fireblossom_2"
        ],
        [
          "waterlily_1",
          "bellflower_2"
        ],
        [
          "waterlily_1",
          "bellflower_2"
        ],
        [
          "fireblossom_2",
          "bellflower_2"
        ],
        [
          "waterlily_1",
          "waterlily_2"
        ],
        [
          "bellflower_2",
          "waterlily_2"
        ],
        [
          "bellflower_2",
          "fireblossom_2"
        ],
        [
          "bellflower_2",
          "fireblossom_2"
        ],
        [
          "waterlily_2",
          "fireblossom_2"
        ],
        [
          "waterlily_2",
          "bellflower_2"
        ],
        [
          "bellflower_2",
          "snowdrop_1"
        ]
      ],
      "layers": 6,
      "difficulty": 11
    },
    {
      "setup": {
        "waterlily_1": [
          {
            "waterlily": 1
          },
          {}
        ],
        "snowdrop_1": [
          {
            "snowdrop": 1
          },
          {
            "waterlily": 3
          }
        ],
        "bellflower_1": [
          {
            "bellflower": 1
          },
          {
            "snowdrop": 2,
            "waterlily": 1
          }
        ],
        "fireblossom_1": [
          {
            "fireblossom": 1
          },
          {
            "bellflower": 1,
            "waterlily": 2
          }
        ],
        "bellflower_2": [
          {
            "bellflower": 2
          },
          {
            "bellflower": 1,
            "fireblossom": 1,
            "waterlily": 1
          }
        ],
        "snowdrop_2": [
          {
            "snowdrop": 2
          },
          {
            "bellflower": 4,
            "fireblossom": 1
          }
        ],
        "fireblossom_2": [
          {
            "fireblossom": 2
          },
          {
            "snowdrop": 4,
            "waterlily": 1
          }
        ],
        "starflower_1": [
          {
            "starflower": 1
          },
          {
            "bellflower": 2,
            "fireblossom": 4,
            "snowdrop": 2
          }
        ]
      },
      "solution": [
        [
          "waterlily_1",
          "snowdrop_1"
        ],
        [
          "waterlily_1",
          "snowdrop_1"
        ],
        [
          "snowdrop_1",
          "bellflower_1"
        ],
        [
          "snowdrop_1",
          "fireblossom_1"
        ],
        [
          "bellflower_1",
          "bellflower_2"
        ],
        [
          "waterlily_1",
          "bellflower_2"
        ],
        [
          "waterlily_1",
          "snowdrop_2"
        ],
        [
          "bellflower_2",
          "snowdrop_2"
        ],
        [
          "bellflower_2",
          "waterlily_1"
        ],
        [
          "fireblossom_1",
          "fireblossom_2"
        ],
        [
          "snowdrop_2",
          "fireblossom_2"
        ],
        [
          "snowdrop_2",
          "bellflower_1"
        ],
        [
          "bellflower_1",
          "bellflower_2"
        ],
        [
          "waterlily_1",
          "bellflower_2"
        ],
        [
          "bellflower_2",
          "snowdrop_2"
        ]
      ],
      "layers": 6,
      "difficulty": 15
    },
    {
      "setup": {
        "waterlily_1": [
          {
            "waterlily": 1
          },
          {}
        ],
        "fireblossom_1": [
          {
            "fireblossom": 1
          },
          {
            "waterlily": 4
          }
        ],
        "bellflower_1": [
          {
            "bellflower": 1
          },
          {
            "fireblossom": 1,
            "waterlily": 3
          }
        ],
        "snowdrop_1": [
          {
            "snowdrop": 1
          },
          {
            "bellflower": 1,
            "waterlily": 3
          }
        ],
        "snowdrop_2": [
          {
            "snowdrop": 2
          },
          {
            "snowdrop": 1,
            "waterlily": 3
          }
        ],
        "waterlily_2": [
          {
            "waterlily": 2
          },
          {
            "snowdrop": 4,
            "waterlily": 2
          }
        ],
        "fireblossom_2": [
          {
            "fireblossom": 2
          },
          {
            "bellflower": 2,
            "snowdrop": 1,
            "waterlily": 2
          }
        ],
        "starflower_1": [
          {
            "starflower": 1
          },
          {
            "fireblossom": 4,
            "waterlily": 2
          }
        ]
      },
      "solution": [
        [
          "waterlily_1",
          "fireblossom_1"
        ],
        [
          "fireblossom_1",
          "bellflower_1"
        ],
        [
          "bellflower_1",
          "snowdrop_1"
        ],
        [
          "snowdrop_1",
          "snowdrop_2"
        ],
        [
          "waterlily_1",
          "snowdrop_2"
        ],
        [
          "snowdrop_2",
          "waterlily_2"
        ],
        [
          "snowdrop_2",
          "fireblossom_1"
        ],
        [
          "waterlily_1",
          "bellflower_1"
        ],
        [
          "fireblossom_1",
          "bellflower_1"
        ],
        [
          "waterlily_1",
          "snowdrop_1"
        ],
        [
          "bellflower_1",
          "fireblossom_2"
        ],
        [
          "bellflower_1",
          "waterlily_1"
        ],
        [
          "snowdrop_1",
          "snowdrop_2"
        ],
        [
          "waterlily_1",
          "snowdrop_2"
        ],
        [
          "snowdrop_2",
          "waterlily_2"
        ],
        [
          "snowdrop_2",
          "fireblossom_1"
        ],
        [
          "waterlily_2",
          "fireblossom_1"
        ]
      ],
      "layers": 6,
      "difficulty": 17
    },
    {
      "setup": {
        "waterlily_1": [
          {
            "waterlily": 1
          },
          {}
        ],
        "snowdrop_1": [
          {
            "snowdrop": 1
          },
          {
            "waterlily": 2
          }
        ],
        "bellflower_1": [
          {
            "bellflower": 1
          },
          {
            "snowdrop": 1,
            "waterlily": 1
          }
        ],
        "fireblossom_1": [
          {
            "fireblossom": 1
          },
          {
            "bellflower": 0,
            "snowdrop": 2
          }
        ],
        "waterlily_2": [
          {
            "waterlily": 2
          },
          {
            "fireblossom": 2,
            "waterlily": 0
          }
        ],
        "snowdrop_2": [
          {
            "snowdrop": 2
          },
          {
            "bellflower": 0,
            "waterlily": 5
          }
        ],
        "fireblossom_2": [
          {
            "fireblossom": 2
          },
          {
            "bellflower": 2,
            "fireblossom": 0
          }
        ],
        "bellflower_2": [
          {
            "bellflower": 2
          },
          {
            "fireblossom": 1,
            "snowdrop": 4
          }
        ],
        "starflower_1": [
          {
            "starflower": 1
          },
          {
            "bellflower": 5,
            "fireblossom": 2
          }
        ]
      },
      "solution": [
        [
          "waterlily_1",
          "snowdrop_1"
        ],
        [
          "waterlily_1",
          "bellflower_1"
        ],
        [
          "snowdrop_1",
          "bellflower_1"
        ],
        [
          "bellflower_1",
          "fireblossom_2"
        ],
        [
          "bellflower_1",
          "waterlily_2"
        ],
        [
          "fireblossom_2",
          "waterlily_2"
        ],
        [
          "waterlily_1",
          "snowdrop_2"
        ],
        [
          "waterlily_1",
          "snowdrop_2"
        ],
        [
          "waterlily_2",
          "fireblossom_1"
        ],
        [
          "fireblossom_1",
          "bellflower_2"
        ],
        [
          "waterlily_2",
          "fireblossom_2"
        ],
        [
          "snowdrop_2",
          "bellflower_2"
        ],
        [
          "fireblossom_2",
          "waterlily_2"
        ],
        [
          "snowdrop_2",
          "bellflower_1"
        ],
        [
          "waterlily_2",
          "fireblossom_2"
        ]
      ],
      "layers": 7,
      "difficulty": 15
    },
    {
      "setup": {
        "waterlily_1": [
          {
            "waterlily": 1
          },
          {}
        ],
        "bellflower_1": [
          {
            "bellflower": 1
          },
          {
            "waterlily": 3
          }
        ],
        "fireblossom_1": [
          {
            "fireblossom": 1
          },
          {
            "bellflower": 2,
            "waterlily": 1
          }
        ],
        "snowdrop_1": [
          {
            "snowdrop": 1
          },
          {
            "fireblossom": 1,
            "waterlily": 2
          }
        ],
        "bellflower_2": [
          {
            "bellflower": 2
          },
          {
            "fireblossom": 2,
            "snowdrop": 0,
            "waterlily": 1
          }
        ],
        "snowdrop_2": [
          {
            "snowdrop": 2
          },
          {
            "bellflower": 2,
            "fireblossom": 1,
            "snowdrop": 0,
            "waterlily": 1
          }
        ],
        "fireblossom_2": [
          {
            "fireblossom": 2
          },
          {
            "snowdrop": 3,
            "waterlily": 2
          }
        ],
        "waterlily_2": [
          {
            "waterlily": 2
          },
          {
            "fireblossom": 4,
            "waterlily": 0
          }
        ],
        "starflower_1": [
          {
            "starflower": 1
          },
          {
            "fireblossom": 5,
            "snowdrop": 1
          }
        ]
      },
      "solution": [
        [
          "waterlily_1",
          "bellflower_1"
        ],
        [
          "waterlily_1",
          "bellflower_1"
        ],
        [
          "waterlily_1",
          "fireblossom_1"
        ],
        [
          "bellflower_1",
          "snowdrop_2"
        ],
        [
          "bellflower_1",
          "waterlily_1"
        ],
        [
          "fireblossom_1",
          "snowdrop_1"
        ],
        [
          "snowdrop_1",
          "fireblossom_2"
        ],
        [
          "snowdrop_2",
          "bellflower_2"
        ],
        [
          "waterlily_1",
          "fireblossom_1"
        ],
        [
          "waterlily_1",
          "fireblossom_1"
        ],
        [
          "fireblossom_1",
          "waterlily_2"
        ],
        [
          "fireblossom_1",
          "snowdrop_2"
        ],
        [
          "bellflower_2",
          "snowdrop_2"
        ],
        [
          "snowdrop_2",
          "fireblossom_2"
        ],
        [
          "snowdrop_2",
          "bellflower_2"
        ],
        [
          "bellflower_2",
          "fireblossom_1"
        ],
        [
          "waterlily_2",
          "snowdrop_1"
        ]
      ],
      "layers": 7,
      "difficulty": 17
    },
    {
      "setup": {
        "waterlily_1": [
          {
            "waterlily": 1
          },
          {}
        ],
        "fireblossom_1": [
          {
            "fireblossom": 1
          },
          {
            "waterlily": 4
          }
        ],
        "bellflower_1": [
          {
            "bellflower": 1
          },
          {
            "fireblossom": 1,
            "waterlily": 3
          }
        ],
        "snowdrop_1": [
          {
            "snowdrop": 1
          },
          {
            "bellflower": 1,
            "waterlily": 3
          }
        ],
        "snowdrop_2": [
          {
            "snowdrop": 2
          },
          {
            "snowdrop": 1,
            "waterlily": 3
          }
        ],
        "waterlily_2": [
          {
            "waterlily": 2
          },
          {
            "snowdrop": 4,
            "waterlily": 2
          }
        ],
        "bellflower_2": [
          {
            "bellflower": 2
          },
          {
            "bellflower": 2,
            "snowdrop": 1,
            "waterlily": 2
          }
        ],
        "fireblossom_2": [
          {
            "fireblossom": 2
          },
          {
            "bellflower": 2,
            "fireblossom": 2,
            "waterlily": 2
          }
        ],
        "starflower_1": [
          {
            "starflower": 1
          },
          {
            "fireblossom": 2,
            "waterlily": 5
          }
        ]
      },
      "solution": [
        [
          "waterlily_1",
          "fireblossom_1"
        ],
        [
          "fireblossom_1",
          "bellflower_1"
        ],
        [
          "bellflower_1",
          "snowdrop_1"
        ],
        [
          "snowdrop_1",
          "snowdrop_2"
        ],
        [
          "waterlily_1",
          "snowdrop_2"
        ],
        [
          "snowdrop_2",
          "waterlily_2"
        ],
        [
          "snowdrop_2",
          "fireblossom_1"
        ],
        [
          "waterlily_1",
          "bellflower_1"
        ],
        [
          "fireblossom_1",
          "bellflower_1"
        ],
        [
          "waterlily_1",
          "snowdrop_1"
        ],
        [
          "bellflower_1",
          "bellflower_2"
        ],
        [
          "bellflower_1",
          "waterlily_1"
        ],
        [
          "snowdrop_1",
          "snowdrop_2"
        ],
        [
          "waterlily_1",
          "snowdrop_2"
        ],
        [
          "snowdrop_2",
          "waterlily_2"
        ],
        [
          "snowdrop_2",
          "fireblossom_1"
        ],
        [
          "waterlily_2",
          "fireblossom_1"
        ],
        [
          "fireblossom_1",
          "fireblossom_2"
        ],
        [
          "fireblossom_1",
          "waterlily_1"
        ],
        [
          "bellflower_2",
          "snowdrop_1"
        ],
        [
          "snowdrop_1",
          "snowdrop_2"
        ],
        [
          "waterlily_1",
          "snowdrop_2"
        ],
        [
          "snowdrop_2",
          "waterlily_2"
        ],
        [
          "snowdrop_2",
          "waterlily_1"
        ]
      ],
      "layers": 7,
      "difficulty": 24
    }
  ]